<?xml version="1.0"?>

<robot name="ArDrone" xmlns:xacro="http://ros.org/wiki/xacro">
   
    <xacro:property name="M_PI" value="3.1415926535897931" />
    
    <!-- Included URDF Files -->
    <xacro:include filename="$(find gazebo_simulation)/urdf/quadrotor_base.urdf.xacro" />
    
    <!-- Instantiate quadrotor_base_macro once (has no parameters atm) -->
    <quadrotor_base_macro />
    

    <!-- Sonar height sensor -->
    <xacro:include filename="$(find gazebo_simulation)/urdf/sensors/sonar_sensor.urdf.xacro" />
    <xacro:sonar_sensor name="sonar" parent="base_link" ros_topic="sonar_height" update_rate="10" min_range="0.01" max_range="15.0" field_of_view="${30*pi/180}" ray_count="3">
      <origin xyz="-0.15 0.0 0.0" rpy="0 ${90*M_PI/180} 0"/>
    </xacro:sonar_sensor>
       

    <!-- Forward sonar sensor -->
    <xacro:sonar_sensor name="sonar_forward" parent="base_link" ros_topic="sonar_forward" update_rate="10" min_range="0.01" max_range="15.0" field_of_view="${10*pi/180}" ray_count="3">
      <origin xyz="0.21 0.0 0.0" rpy="0 0 0"/>
    </xacro:sonar_sensor>
    
    <!-- left sonar sensor -->
    <xacro:sonar_sensor name="sonar_left" parent="base_link" ros_topic="sonar_left" update_rate="10" min_range="0.01" max_range="15.0" field_of_view="${30*pi/180}" ray_count="3">
      <origin xyz="0.0 0.24 0.0" rpy="0 0 ${90*M_PI/180}"/>
    </xacro:sonar_sensor>
    
    <!-- right sonar sensor -->
    <xacro:sonar_sensor name="sonar_right" parent="base_link" ros_topic="sonar_right" update_rate="10" min_range="0.01" max_range="15.0" field_of_view="${30*pi/180}" ray_count="3">
      <origin xyz="0.0 -0.24 0.0" rpy="0 0 -${90*M_PI/180}"/>
    </xacro:sonar_sensor>
    
    <!-- Hokuyo UTM-30LX mounted upside down below the quadrotor body 
    <include filename="$(find cvg_sim_gazebo)/urdf/sensors/hokuyo_utm30lx.urdf.xacro" />
    <xacro:hokuyo_utm30lx name="laser0" parent="base_link" ros_topic="scan" update_rate="40" ray_count="1081" min_angle="135" max_angle="-135">
      <origin xyz="0.0 0.0 0.08" rpy="${M_PI} 0 0"/>
    </xacro:hokuyo_utm30lx>-->
    
    <!-- The following two cameras should be united to one! -->
    <!-- Forward facing camera-->
    <xacro:include filename="$(find gazebo_simulation)/urdf/sensors/generic_camera.urdf.xacro" />
    <xacro:generic_camera name="ardrone/front" parent="base_link" ros_topic="image_raw" cam_info_topic="camera_info" update_rate="60" res_x="640" res_y="360" image_format="R8G8B8" hfov="81" framename="ardrone_base__ardrone_frontcam">
      <origin xyz="0.21 0.0 0.01" rpy="0 ${M_PI/2} 0"/>
    </xacro:generic_camera> 

    <!-- Downward facing camera 
    <xacro:include filename="$(find gazebo_simulation)/urdf/sensors/generic_camera.urdf.xacro" />-->
    <xacro:generic_camera name="ardrone/bottom" parent="base_link" ros_topic="image_raw" cam_info_topic="camera_info" update_rate="60" res_x="640" res_y="360" image_format="R8G8B8" hfov="81" framename="ardrone_base_ardrone_bottomcam">
      <origin xyz="0.15 0.0 0.0" rpy="0 ${M_PI/2} 0"/>
    </xacro:generic_camera>
    
</robot>
  
