<?xml version="1.0" encoding="UTF-8" ?>
<sdf version="1.4">
  <world name="default">
    <scene>
      <ambient>0.5 0.5 0.5 1</ambient>
      <background>0.5 0.5 0.5 1</background>
      <shadows>false</shadows>
    </scene>
    <physics type="ode">
      <gravity>0 0 -9.81</gravity>
      <ode>
        <solver>
          <type>quick</type>
          <iters>10</iters>
          <sor>1.3</sor>
        </solver>
        <constraints>
          <cfm>0.0</cfm>
          <erp>0.2</erp>
          <contact_max_correcting_vel>10</contact_max_correcting_vel>
          <contact_surface_layer>0.001</contact_surface_layer>
        </constraints>
      </ode>
      <real_time_update_rate>1000</real_time_update_rate>
      <max_step_size>0.001</max_step_size>
    </physics>
    <light type="directional" name="directional_light_1">
      <pose>0 0 50 0 0 0</pose>
      <diffuse>1 1 1 1</diffuse>
      <specular>1 1 1 1</specular>
      <attenuation>
        <range>300</range>
      </attenuation>
      <direction>1 1 -1</direction>
      <cast_shadows>false</cast_shadows>
    </light>
    <light type="directional" name="directional_light_2">
      <pose>0 0 50 0 0 0</pose>
      <diffuse>1 1 1 1</diffuse>
      <specular>1 1 1 1</specular>
      <attenuation>
        <range>300</range>
      </attenuation>
      <direction>-1 1 -1</direction>
      <cast_shadows>false</cast_shadows>
    </light>
    <!-- Ground Plane -->
    <model name="plane1_model">
      <link name="body">
        <collision name="geom_1">
          <geometry>
            <plane>
              <normal>0 0 1</normal>
            </plane>
          </geometry>
          <surface>
            <friction>
              <ode>
                <mu>10.0</mu>
                <mu2>10.0</mu2>
                <fdir1>0 0 0</fdir1>
                <slip1>0</slip1>
                <slip2>0</slip2>
              </ode>
            </friction>
            <bounce>
              <restitution_coefficient>0</restitution_coefficient>
              <threshold>1000000.0</threshold>
            </bounce>
            <contact>
              <ode>
                <soft_cfm>0</soft_cfm>
                <soft_erp>0.2</soft_erp>
                <kp>1e10</kp>
                <kd>1</kd>
                <max_vel>100.0</max_vel>
                <min_depth>0.0001</min_depth>
              </ode>
            </contact>
          </surface>
        </collision>
        <visual name="visual_1">
          <geometry>
            <plane>
              <normal>0 0 1</normal>
            </plane>
          </geometry>
          <material>
            <script>Kitchen/Grass</script>
          </material>
          <cast_shadows>false</cast_shadows>
        </visual>
      </link>
      <static>true</static>
    </model>
    <model name="wall1">
      <link name="wall1_link">
        <pose>48 6.25 1 0 0 0</pose>
        <collision name="wall1_collision">
          <geometry>
            <box>
              <size>0.2 25 3</size>
            </box>
          </geometry>
        </collision>
        <visual name="wall1">
          <geometry>
            <box>
              <size>0.2 25 3</size>
            </box>
          </geometry>
          <material>
            <script>Kitchen/CounterTop</script>
          </material>
          <cast_shadows>true</cast_shadows>
        </visual>
      </link>
      <static>true</static>
    </model>
    <model name="wall2">
      <link name="wall2_link">
        <pose>-2 6.25 1 0 0 0</pose>
        <collision name="wall2_collision">
          <geometry>
            <box>
              <size>0.2 25 3</size>
            </box>
          </geometry>
        </collision>
        <visual name="wall2">
          <geometry>
            <box>
              <size>0.2 25 3</size>
            </box>
          </geometry>
          <material>
            <script>Kitchen/CounterTop</script>
          </material>
          <cast_shadows>true</cast_shadows>
        </visual>
      </link>
      <static>true</static>
    </model>
    <model name="wall3">
      <link name="wall3_link">
        <pose>23 18.75 1 0 0 0</pose>
        <collision name="wall3_collision">
          <geometry>
            <box>
              <size>50 0.2 3</size>
            </box>
          </geometry>
        </collision>
        <visual name="wall3">
          <geometry>
            <box>
              <size>50 0.2 3</size>
            </box>
          </geometry>
          <material>
            <script>Kitchen/CounterTop_H</script>
          </material>
          <cast_shadows>true</cast_shadows>
        </visual>
      </link>
      <static>true</static>
    </model>
    <model name="wall4">
      <link name="wall4_link">
        <pose>23 -6.25 1 0 0 0</pose>
        <collision name="wall4_collision">
          <geometry>
            <box>
              <size>50 0.2 3</size>
            </box>
          </geometry>
        </collision>
        <visual name="wall4">
          <geometry>
            <box>
              <size>50 0.2 3</size>
            </box>
          </geometry>
          <material>
            <script>Kitchen/CounterTop_H</script>
          </material>
          <cast_shadows>true</cast_shadows>
        </visual>
      </link>
      <static>true</static>
    </model>
    <model name="wall_middle">
      <link name="wall_middle_link">
        <pose>20.5 6.25 1 0 0 0</pose>
        <collision name="wall_middle_collision">
          <geometry>
            <box>
              <size>45 0.2 3</size>
            </box>
          </geometry>
        </collision>
        <visual name="wall_middle">
          <geometry>
            <box>
              <size>45 0.2 3</size>
            </box>
          </geometry>
          <material>
            <script>Kitchen/CounterTop_H</script>
          </material>
          <cast_shadows>true</cast_shadows>
        </visual>
      </link>
      <static>true</static>
    </model>
    <!-- Shirokayz chast' prepyatstviya -->
    <model name="obstacle_1">
      <link name="obstacle_1_link">
        <pose>20 1.75 1 0 0 0</pose>
        <!-- <origin pose="30 15 1 0 0 0"/> -->
        <collision name="obstacle_1_collision">
          <geometry>
            <box>
              <size>0.2 9.5 3</size>
            </box>
            <!-- <box size="0.2 7.5 3"/> -->
          </geometry>
        </collision>
        <visual name="obstacle_1">
          <geometry>
            <box>
              <size>0.2 9.5 3</size>
            </box>
            <!-- <box size="0.2 7.5 3"/> -->
          </geometry>
          <material>
            <script>Kitchen/WoodFloor</script>
          </material>
          <cast_shadows>true</cast_shadows>
        </visual>
      </link>
      <static>true</static>
    </model>
    <!-- Uzkaya chast' prepyatstviya -->
    <model name="obstacle_2">
      <link name="obstacle_2_link">
        <pose>30 7.25 1 0 0 0</pose>
        <collision name="obstacle_2_collision">
          <geometry>
            <box>
              <size>0.2 2 3</size>
            </box>
          </geometry>
        </collision>
        <visual name="obstacle_2">
          <geometry>
            <box>
              <size>0.2 2 3</size>
            </box>
          </geometry>
          <material>
            <script>Kitchen/WoodFloor</script>
          </material>
          <cast_shadows>true</cast_shadows>
        </visual>
      </link>
      <static>true</static>
    </model>
    <!-- Dopolnitel'naya stena  -->
    <model name="dop_wall1">
      <link name="dop_wall1_link">
        <pose>30 -3 1 0 0 0</pose>
        <collision name="dop_wall1_collision">
          <geometry>
            <box>
              <size>20 0.2 3</size>
            </box>
          </geometry>
        </collision>
        <visual name="dop_wall1">
          <geometry>
            <box>
              <size>20 0.2 3</size>
            </box>
          </geometry>
          <material>
            <script>Kitchen/CounterTop</script>
          </material>
          <cast_shadows>true</cast_shadows>
        </visual>
      </link>
      <static>true</static>
    </model>
    <include filename="../models/competition_start.model" model_name="competition_start" model_pose="0 0 0.001 0 0 0.0" />
    <include filename="../models/competition_end.model" model_name="competition_end" model_pose="2 14 0.001 0 0 0.0" />
  </world>
</sdf>
